<svg id="corona" xmlns="http://www.w3.org/2000/svg" width="45.416" height="46.935" viewBox="0 0 45.416 46.935">
  <path id="Path_5358" data-name="Path 5358" d="M0,0H45.238V46.568H0Z" transform="translate(0 0)" fill="#fff"/>
  <g id="Group_5899" data-name="Group 5899" transform="translate(0 0)">
    <circle id="Ellipse_237" data-name="Ellipse 237" cx="1.243" cy="1.243" r="1.243" transform="translate(6.184 8.508)" fill="#f36a10"/>
    <g id="Ellipse_241" data-name="Ellipse 241" transform="translate(23.292 22.984)" fill="#fff" stroke="#3d7cc9" stroke-width="1">
      <circle cx="1.658" cy="1.658" r="1.658" stroke="none"/>
      <circle cx="1.658" cy="1.658" r="1.158" fill="none"/>
    </g>
    <circle id="Ellipse_238" data-name="Ellipse 238" cx="1.243" cy="1.243" r="1.243" transform="translate(18.191 13.613)" fill="#f7be00"/>
    <circle id="Ellipse_244" data-name="Ellipse 244" cx="1.243" cy="1.243" r="1.243" transform="translate(19.888 33.182)" fill="#f7be00"/>
    <g id="Ellipse_240" data-name="Ellipse 240" transform="translate(9.299 34.597)" fill="#fff" stroke="#3d7cc9" stroke-width="0.8">
      <circle cx="1.658" cy="1.658" r="1.658" stroke="none"/>
      <circle cx="1.658" cy="1.658" r="1.258" fill="none"/>
    </g>
    <g id="Ellipse_242" data-name="Ellipse 242" transform="translate(13.956 0)" fill="#fff" stroke="#3d7cc9" stroke-width="0.5">
      <circle cx="1.658" cy="1.658" r="1.658" stroke="none"/>
      <circle cx="1.658" cy="1.658" r="1.408" fill="none"/>
    </g>
    <g id="Group_5898" data-name="Group 5898" transform="translate(0 0.001)">
      <g id="Union_7" data-name="Union 7" transform="translate(0)" fill="#fff">
        <path d="M 23.3353385925293 45.93404006958008 C 21.7747688293457 45.93404006958008 20.50515747070312 44.65472030639648 20.50515747070312 43.08222198486328 C 20.50515747070312 42.11250305175781 20.98659896850586 41.21770095825195 21.79299926757812 40.68865203857422 L 22.24444770812988 40.39247131347656 L 22.24444770812988 39.85253143310547 L 22.24444770812988 36.26092147827148 L 22.24444770812988 35.40760040283203 L 21.40174865722656 35.27337265014648 C 18.95849800109863 34.88421249389648 16.71384811401367 33.76767349243164 14.91044807434082 32.04446029663086 C 13.11183834075928 30.32583236694336 11.88811874389648 28.13543128967285 11.37155818939209 25.71008110046387 L 11.20294857025146 24.91839218139648 L 10.39349842071533 24.91839218139648 L 6.78648853302002 24.91839218139648 L 6.313718318939209 24.91839218139648 L 6.013678550720215 25.28375244140625 C 5.472968578338623 25.94218254089355 4.677528381347656 26.3198127746582 3.831328392028809 26.3198127746582 C 2.270128488540649 26.3198127746582 0.9999983906745911 25.04005241394043 0.9999983906745911 23.46702194213867 C 0.9999983906745911 21.89399147033691 2.270128488540649 20.61424255371094 3.831328392028809 20.61424255371094 C 4.898818492889404 20.61424255371094 5.865278244018555 21.21000099182129 6.353548526763916 22.16902160644531 L 6.631688594818115 22.71530151367188 L 7.244698524475098 22.71530151367188 L 10.17263793945312 22.71530151367188 L 11.0740385055542 22.71530151367188 L 11.16727828979492 21.8187313079834 C 11.74180793762207 16.2937126159668 15.95099830627441 11.82847213745117 21.40326881408691 10.96006202697754 L 22.24597930908203 10.82584190368652 L 22.24597930908203 9.972512245178223 L 22.24597930908203 7.082481861114502 L 22.24597930908203 6.542111873626709 L 21.79396820068359 6.246001720428467 C 20.98647880554199 5.717001914978027 20.50439834594727 4.822341918945312 20.50439834594727 3.852782011032104 C 20.50439834594727 2.279752016067505 21.77434921264648 1.000001907348633 23.3353385925293 1.000001907348633 C 24.8961181640625 1.000001907348633 26.1658992767334 2.279752016067505 26.1658992767334 3.852782011032104 C 26.1658992767334 4.822201728820801 25.68417930603027 5.716991901397705 24.87729835510254 6.24636173248291 L 24.42584800720215 6.542541980743408 L 24.42584800720215 7.082481861114502 L 24.42584800720215 9.972512245178223 L 24.42584800720215 10.82579231262207 L 25.26850891113281 10.96005153656006 C 28.11053848266602 11.41287231445312 30.71706771850586 12.87759208679199 32.60792922973633 15.08440208435059 C 34.51936721801758 17.3152027130127 35.57203674316406 20.16746139526367 35.57203674316406 23.11575126647949 C 35.57203674316406 26.06522178649902 34.51935958862305 28.91819190979004 32.60791778564453 31.14910125732422 C 30.7172679901123 33.35574340820312 28.11073875427246 34.82044219970703 25.26847839355469 35.27338027954102 L 24.42584800720215 35.40766143798828 L 24.42584800720215 36.26092147827148 L 24.42584800720215 39.8515625 L 24.42584800720215 40.39129257202148 L 24.87703895568848 40.6875114440918 C 25.68503761291504 41.21797180175781 26.16742897033691 42.11319351196289 26.16742897033691 43.08222198486328 C 26.16742897033691 44.65472030639648 24.89695930480957 45.93404006958008 23.3353385925293 45.93404006958008 Z" stroke="none"/>
        <path d="M 23.3353385925293 44.93404006958008 C 24.34555816650391 44.93404006958008 25.16742897033691 44.10332107543945 25.16742897033691 43.08222198486328 C 25.16742897033691 42.4511604309082 24.85370826721191 41.86844253540039 24.32822799682617 41.52345275878906 L 23.42584800720215 40.9310302734375 L 23.42584800720215 34.55440139770508 L 25.11109924316406 34.28584289550781 C 27.71933746337891 33.87020111083984 30.11206817626953 32.52514266967773 31.8485279083252 30.49846267700195 C 33.60480880737305 28.44864273071289 34.57203674316406 25.82675170898438 34.57203674316406 23.11575126647949 C 34.57203674316406 20.40594100952148 33.60482025146484 17.78476142883301 31.84855842590332 15.73505210876465 C 30.11188888549805 13.70820236206055 27.71916770935059 12.36313152313232 25.11115837097168 11.94760227203369 L 23.42584800720215 11.67908191680908 L 23.42584800720215 6.002612113952637 L 24.32874870300293 5.410242080688477 C 24.85294914245605 5.066341876983643 25.1658992767334 4.484111785888672 25.1658992767334 3.852782011032104 C 25.1658992767334 2.831151962280273 24.34470748901367 2.000001907348633 23.3353385925293 2.000001907348633 C 22.32575798034668 2.000001907348633 21.50439834594727 2.831151962280273 21.50439834594727 3.852782011032104 C 21.50439834594727 4.483982086181641 21.81750869750977 5.06594181060791 22.34195899963379 5.409512042999268 L 23.24597930908203 6.001741886138916 L 23.24597930908203 11.67917156219482 L 21.5605583190918 11.94761180877686 C 16.55456924438477 12.74494171142578 12.6897087097168 16.84662246704102 12.16190814971924 21.92216110229492 L 11.97544860839844 23.71530151367188 L 6.018668174743652 23.71530151367188 L 5.462408542633057 22.62273216247559 C 5.145688533782959 22.00067138671875 4.520698547363281 21.61424255371094 3.831328392028809 21.61424255371094 C 2.821528434753418 21.61424255371094 1.999998331069946 22.44539260864258 1.999998331069946 23.46702194213867 C 1.999998331069946 24.48865127563477 2.821528434753418 25.3198127746582 3.831328392028809 25.3198127746582 C 4.377078533172607 25.3198127746582 4.890838146209717 25.07535171508789 5.240878582000732 24.64910125732422 L 5.840958595275879 23.91839218139648 L 12.0123987197876 23.91839218139648 L 12.34962844848633 25.50177192687988 C 12.82414817810059 27.72980117797852 13.94855880737305 29.74221229553223 15.60129833221436 31.32146263122559 C 17.25715827941895 32.90369033813477 19.31731796264648 33.92875289916992 21.55904769897461 34.28582382202148 L 23.24444770812988 34.55427169799805 L 23.24444770812988 40.93240356445312 L 22.34154891967773 41.52477264404297 C 21.81782913208008 41.86836242675781 21.50515747070312 42.45059204101562 21.50515747070312 43.08222198486328 C 21.50515747070312 44.10332107543945 22.3261775970459 44.93404006958008 23.3353385925293 44.93404006958008 M 23.3353385925293 46.93404006958008 C 21.21951866149902 46.93404006958008 19.50515747070312 45.20901107788086 19.50515747070312 43.08222198486328 C 19.50515747070312 41.72895050048828 20.1968879699707 40.53980255126953 21.24444770812988 39.85253143310547 L 21.24444770812988 36.26092147827148 C 15.84331798553467 35.4006233215332 11.52962875366211 31.25282287597656 10.39349842071533 25.91839218139648 L 6.78648853302002 25.91839218139648 C 6.083648204803467 26.77424240112305 5.021138191223145 27.3198127746582 3.831328392028809 27.3198127746582 C 1.715118408203125 27.3198127746582 -1.628417976462515e-06 25.59496116638184 -1.628417976462515e-06 23.46702194213867 C -1.628417976462515e-06 21.33908271789551 1.715118408203125 19.61424255371094 3.831328392028809 19.61424255371094 C 5.319838523864746 19.61424255371094 6.609728336334229 20.4681510925293 7.244698524475098 21.71530151367188 L 10.17263793945312 21.71530151367188 C 10.79610824584961 15.71969223022461 15.37973880767822 10.90685176849365 21.24597930908203 9.972512245178223 L 21.24597930908203 7.082481861114502 C 20.1968879699707 6.395212173461914 19.50439834594727 5.204132080078125 19.50439834594727 3.852782011032104 C 19.50439834594727 1.72504198551178 21.21951866149902 1.942138624144718e-06 23.3353385925293 1.942138624144718e-06 C 25.45229911804199 1.942138624144718e-06 27.1658992767334 1.72504198551178 27.1658992767334 3.852782011032104 C 27.1658992767334 5.204132080078125 26.47340774536133 6.395212173461914 25.42584800720215 7.082481861114502 L 25.42584800720215 9.972512245178223 C 31.74147796630859 10.97877216339111 36.57203674316406 16.48178100585938 36.57203674316406 23.11575126647949 C 36.57203674316406 29.75261116027832 31.74147796630859 35.25447082519531 25.42584800720215 36.26092147827148 L 25.42584800720215 39.8515625 C 26.47416877746582 40.53980255126953 27.16742897033691 41.72895050048828 27.16742897033691 43.08222198486328 C 27.16742897033691 45.20901107788086 25.45229911804199 46.93404006958008 23.3353385925293 46.93404006958008 Z" stroke="none" fill="#3d7cc9"/>
      </g>
    </g>
    <circle id="Ellipse_248" data-name="Ellipse 248" cx="1.243" cy="1.243" r="1.243" transform="translate(13.949 21.564)" fill="#f36a10"/>
    <g id="Ellipse_243" data-name="Ellipse 243" transform="translate(18.498 28.091)" fill="#fff" stroke="#3d7cc9" stroke-width="0.5">
      <circle cx="1.658" cy="1.658" r="1.658" stroke="none"/>
      <circle cx="1.658" cy="1.658" r="1.408" fill="none"/>
    </g>
    <g id="Group_5897" data-name="Group 5897" transform="translate(24.791 19.04)">
      <path id="Path_5353" data-name="Path 5353" d="M451.556,121.26a19.9,19.9,0,0,1,9.267,2.469.668.668,0,0,1,.368.523c.495,3.843.39,7.671-1.376,11.217a15.631,15.631,0,0,1-7.9,7.2.666.666,0,0,1-.583,0,15.631,15.631,0,0,1-7.9-7.2c-1.765-3.544-1.872-7.375-1.376-11.217a.667.667,0,0,1,.356-.517,18.642,18.642,0,0,1,9.138-2.476Z" transform="translate(-441.805 -121.26)" fill="#f7f9fc" stroke="#3d7cc9" stroke-width="2"/>
      <path id="Path_5354" data-name="Path 5354" d="M576.392,267.87l1.822,1.788,3.792-4.628,1.565,1.281-5.193,6.337-3.4-3.339,1.415-1.439Z" transform="translate(-569.329 -258.387)" fill="#f36a10"/>
    </g>
    <circle id="Ellipse_246" data-name="Ellipse 246" cx="1.243" cy="1.243" r="1.243" transform="translate(36.247 9.793) rotate(90)" fill="#f36a10"/>
    <g id="Ellipse_249" data-name="Ellipse 249" transform="translate(20.929 14.149)" fill="#fff" stroke="#3d7cc9" stroke-width="0.8">
      <circle cx="1.658" cy="1.658" r="1.658" stroke="none"/>
      <circle cx="1.658" cy="1.658" r="1.258" fill="none"/>
    </g>
  </g>
</svg>
