<svg xmlns="http://www.w3.org/2000/svg" width="39.887" height="33.719" viewBox="0 0 39.887 33.719">
  <g id="medical" transform="translate(-134.245 -1174.79)">
    <g id="Group_6244" data-name="Group 6244" transform="translate(134.445 1174.99)">
      <path id="Path_5434" data-name="Path 5434" d="M1280.63,291.287h-14.208a.761.761,0,1,1,0-1.522h14.208a.761.761,0,1,1,0,1.522Z" transform="translate(-1253.782 -258.271)" fill="#3d7cc9" stroke="#feffff" stroke-width="0.2"/>
      <path id="Path_5435" data-name="Path 5435" d="M1286.484,276.386a.765.765,0,0,1-.693-1.078l1.748-3.854a.762.762,0,0,1,1.388.63l-1.748,3.854A.763.763,0,0,1,1286.484,276.386Z" transform="translate(-1269.722 -243.368)" fill="#3d7cc9" stroke="rgba(0,0,0,0)" stroke-width="1"/>
      <path id="Path_5436" data-name="Path 5436" d="M1308.561,276.385a.764.764,0,0,1-.692-.442l-1.792-3.854a.762.762,0,0,1,1.382-.642l1.793,3.854a.762.762,0,0,1-.37,1.011A.744.744,0,0,1,1308.561,276.385Z" transform="translate(-1285.836 -243.367)" fill="#3d7cc9" stroke="rgba(0,0,0,0)" stroke-width="1"/>
      <path id="Path_5433" data-name="Path 5433" d="M1246.593,178.1H1208.63a.8.8,0,0,1-.762-.835V149.72a.8.8,0,0,1,.762-.835h37.963a.8.8,0,0,1,.762.835v27.545A.8.8,0,0,1,1246.593,178.1Zm-37.2-1.671h36.439V150.556h-36.439Z" transform="translate(-1207.868 -148.885)" fill="#3d7cc9" stroke="#feffff" stroke-width="0.4"/>
      <path id="Path_5456" data-name="Path 5456" d="M47.348,1773.551h4.786L54,1778.479l3.36-13.991,3.514,13.991,1.781-5.221h2.288l1.966-11.128,1.558,11.128h7.164" transform="translate(-41.75 -1757.218)" fill="none" stroke="#ff8300" stroke-width="2"/>
      <line id="Line_114" data-name="Line 114" x2="37.655" transform="translate(1.066 25.228)" fill="none" stroke="#3d7cc9" stroke-width="1.5"/>
    </g>
  </g>
</svg>
